<svg width="48" height="48" viewBox="0 0 48 48" fill="none" xmlns="http://www.w3.org/2000/svg">
<path d="M34.55 44C31.95 44 29.725 43.075 27.875 41.225C26.025 39.375 25.1 37.15 25.1 34.55C25.1 31.95 26.025 29.725 27.875 27.875C29.725 26.025 31.95 25.1 34.55 25.1C37.15 25.1 39.375 26.025 41.225 27.875C43.075 29.725 44 31.95 44 34.55C44 37.15 43.075 39.375 41.225 41.225C39.375 43.075 37.15 44 34.55 44ZM37.45 39.6L38.85 38.2L35.1 34.45V28.85H33.15V35.15L37.45 39.6ZM9 41.3C8.16667 41.3 7.45833 41.0083 6.875 40.425C6.29167 39.8417 6 39.1333 6 38.3V9.2C6 8.36667 6.25833 7.65833 6.775 7.075C7.29167 6.49167 7.73333 6.2 8.1 6.2H18.2C18.4333 5.03333 19.0083 4.075 19.925 3.325C20.8417 2.575 21.9 2.2 23.1 2.2C24.3 2.2 25.3583 2.575 26.275 3.325C27.1917 4.075 27.7667 5.03333 28 6.2H38.1C38.9333 6.2 39.6417 6.49167 40.225 7.075C40.8083 7.65833 41.1 8.36667 41.1 9.2V23.95C40.6 23.65 40.1083 23.3917 39.625 23.175C39.1417 22.9583 38.6333 22.7667 38.1 22.6V9.2H32.8V15.7H14.3V9.2H9V38.3H22.65C22.8167 38.8 23.0167 39.2917 23.25 39.775C23.4833 40.2583 23.7667 40.7667 24.1 41.3H9ZM24 9C24.5667 9 25.0417 8.80833 25.425 8.425C25.8083 8.04167 26 7.56667 26 7C26 6.43333 25.8083 5.95833 25.425 5.575C25.0417 5.19167 24.5667 5 24 5C23.4333 5 22.9583 5.19167 22.575 5.575C22.1917 5.95833 22 6.43333 22 7C22 7.56667 22.1917 8.04167 22.575 8.425C22.9583 8.80833 23.4333 9 24 9Z" fill="#FEECB8"/>
</svg>
